{
  "1-30": {
    "wav": "data/thomas_records/1-30.flac",
    "length": 8.064,
    "spk_id": "1"
  },
  "3-8": {
    "wav": "data/others_records/3-8.flac",
    "length": 3.815,
    "spk_id": "3"
  },
  "1-38": {
    "wav": "data/thomas_records/1-38.flac",
    "length": 6.336,
    "spk_id": "1"
  },
  "0-23": {
    "wav": "data/jeanmarie_records/0-23.flac",
    "length": 7.776,
    "spk_id": "0"
  },
  "0-40": {
    "wav": "data/jeanmarie_records/0-40.flac",
    "length": 6.912,
    "spk_id": "0"
  },
  "3-16": {
    "wav": "data/others_records/3-16.flac",
    "length": 7.44,
    "spk_id": "3"
  },
  "0-19": {
    "wav": "data/jeanmarie_records/0-19.flac",
    "length": 6.336,
    "spk_id": "0"
  },
  "3-21": {
    "wav": "data/others_records/3-21.flac",
    "length": 10.755,
    "spk_id": "3"
  },
  "1-8": {
    "wav": "data/thomas_records/1-8.flac",
    "length": 7.488,
    "spk_id": "1"
  },
  "3-29": {
    "wav": "data/others_records/3-29.flac",
    "length": 3.36,
    "spk_id": "3"
  },
  "0-18": {
    "wav": "data/jeanmarie_records/0-18.flac",
    "length": 4.608,
    "spk_id": "0"
  },
  "1-9": {
    "wav": "data/thomas_records/1-9.flac",
    "length": 7.488,
    "spk_id": "1"
  },
  "3-39": {
    "wav": "data/others_records/3-39.flac",
    "length": 15.355,
    "spk_id": "3"
  },
  "1-12": {
    "wav": "data/thomas_records/1-12.flac",
    "length": 9.216,
    "spk_id": "1"
  },
  "0-6": {
    "wav": "data/jeanmarie_records/0-6.flac",
    "length": 6.336,
    "spk_id": "0"
  },
  "3-17": {
    "wav": "data/others_records/3-17.flac",
    "length": 11.985,
    "spk_id": "3"
  },
  "0-17": {
    "wav": "data/jeanmarie_records/0-17.flac",
    "length": 7.2,
    "spk_id": "0"
  },
  "3-20": {
    "wav": "data/others_records/3-20.flac",
    "length": 9.865,
    "spk_id": "3"
  },
  "1-41": {
    "wav": "data/thomas_records/1-41.flac",
    "length": 6.912,
    "spk_id": "1"
  },
  "1-25": {
    "wav": "data/thomas_records/1-25.flac",
    "length": 8.064,
    "spk_id": "1"
  },
  "0-5": {
    "wav": "data/jeanmarie_records/0-5.flac",
    "length": 6.624,
    "spk_id": "0"
  },
  "0-22": {
    "wav": "data/jeanmarie_records/0-22.flac",
    "length": 5.184,
    "spk_id": "0"
  },
  "3-38": {
    "wav": "data/others_records/3-38.flac",
    "length": 2.135,
    "spk_id": "3"
  },
  "3-42": {
    "wav": "data/others_records/3-42.flac",
    "length": 3.45,
    "spk_id": "3"
  },
  "3-23": {
    "wav": "data/others_records/3-23.flac",
    "length": 4.565,
    "spk_id": "3"
  },
  "3-43": {
    "wav": "data/others_records/3-43.flac",
    "length": 4.185,
    "spk_id": "3"
  },
  "3-5": {
    "wav": "data/others_records/3-5.flac",
    "length": 9.105,
    "spk_id": "3"
  },
  "1-42": {
    "wav": "data/thomas_records/1-42.flac",
    "length": 8.064,
    "spk_id": "1"
  },
  "3-1": {
    "wav": "data/others_records/3-1.flac",
    "length": 4.905,
    "spk_id": "3"
  },
  "0-42": {
    "wav": "data/jeanmarie_records/0-42.flac",
    "length": 6.336,
    "spk_id": "0"
  },
  "0-27": {
    "wav": "data/jeanmarie_records/0-27.flac",
    "length": 5.76,
    "spk_id": "0"
  },
  "1-1": {
    "wav": "data/thomas_records/1-1.flac",
    "length": 8.64,
    "spk_id": "1"
  },
  "0-31": {
    "wav": "data/jeanmarie_records/0-31.flac",
    "length": 6.336,
    "spk_id": "0"
  },
  "0-39": {
    "wav": "data/jeanmarie_records/0-39.flac",
    "length": 6.336,
    "spk_id": "0"
  },
  "3-34": {
    "wav": "data/others_records/3-34.flac",
    "length": 7.775,
    "spk_id": "3"
  },
  "3-40": {
    "wav": "data/others_records/3-40.flac",
    "length": 3.2,
    "spk_id": "3"
  },
  "1-19": {
    "wav": "data/thomas_records/1-19.flac",
    "length": 8.064,
    "spk_id": "1"
  },
  "1-3": {
    "wav": "data/thomas_records/1-3.flac",
    "length": 6.912,
    "spk_id": "1"
  },
  "1-33": {
    "wav": "data/thomas_records/1-33.flac",
    "length": 8.064,
    "spk_id": "1"
  },
  "3-37": {
    "wav": "data/others_records/3-37.flac",
    "length": 5.435,
    "spk_id": "3"
  },
  "0-38": {
    "wav": "data/jeanmarie_records/0-38.flac",
    "length": 6.048,
    "spk_id": "0"
  },
  "3-9": {
    "wav": "data/others_records/3-9.flac",
    "length": 3.26,
    "spk_id": "3"
  },
  "1-26": {
    "wav": "data/thomas_records/1-26.flac",
    "length": 8.064,
    "spk_id": "1"
  },
  "3-7": {
    "wav": "data/others_records/3-7.flac",
    "length": 8.905,
    "spk_id": "3"
  },
  "0-33": {
    "wav": "data/jeanmarie_records/0-33.flac",
    "length": 7.776,
    "spk_id": "0"
  },
  "0-24": {
    "wav": "data/jeanmarie_records/0-24.flac",
    "length": 8.352,
    "spk_id": "0"
  },
  "3-12": {
    "wav": "data/others_records/3-12.flac",
    "length": 4.315,
    "spk_id": "3"
  },
  "0-4": {
    "wav": "data/jeanmarie_records/0-4.flac",
    "length": 6.336,
    "spk_id": "0"
  },
  "1-18": {
    "wav": "data/thomas_records/1-18.flac",
    "length": 6.912,
    "spk_id": "1"
  },
  "1-34": {
    "wav": "data/thomas_records/1-34.flac",
    "length": 8.64,
    "spk_id": "1"
  },
  "0-32": {
    "wav": "data/jeanmarie_records/0-32.flac",
    "length": 6.336,
    "spk_id": "0"
  },
  "0-14": {
    "wav": "data/jeanmarie_records/0-14.flac",
    "length": 5.76,
    "spk_id": "0"
  },
  "1-22": {
    "wav": "data/thomas_records/1-22.flac",
    "length": 8.064,
    "spk_id": "1"
  },
  "0-25": {
    "wav": "data/jeanmarie_records/0-25.flac",
    "length": 7.2,
    "spk_id": "0"
  },
  "3-35": {
    "wav": "data/others_records/3-35.flac",
    "length": 6.21,
    "spk_id": "3"
  },
  "3-33": {
    "wav": "data/others_records/3-33.flac",
    "length": 13.025,
    "spk_id": "3"
  },
  "0-35": {
    "wav": "data/jeanmarie_records/0-35.flac",
    "length": 5.76,
    "spk_id": "0"
  },
  "1-28": {
    "wav": "data/thomas_records/1-28.flac",
    "length": 10.368,
    "spk_id": "1"
  },
  "1-39": {
    "wav": "data/thomas_records/1-39.flac",
    "length": 6.912,
    "spk_id": "1"
  },
  "1-24": {
    "wav": "data/thomas_records/1-24.flac",
    "length": 9.216,
    "spk_id": "1"
  },
  "3-3": {
    "wav": "data/others_records/3-3.flac",
    "length": 4.41,
    "spk_id": "3"
  },
  "1-20": {
    "wav": "data/thomas_records/1-20.flac",
    "length": 8.64,
    "spk_id": "1"
  },
  "1-27": {
    "wav": "data/thomas_records/1-27.flac",
    "length": 6.912,
    "spk_id": "1"
  },
  "0-15": {
    "wav": "data/jeanmarie_records/0-15.flac",
    "length": 4.608,
    "spk_id": "0"
  },
  "1-10": {
    "wav": "data/thomas_records/1-10.flac",
    "length": 7.488,
    "spk_id": "1"
  },
  "3-26": {
    "wav": "data/others_records/3-26.flac",
    "length": 12.995,
    "spk_id": "3"
  },
  "3-25": {
    "wav": "data/others_records/3-25.flac",
    "length": 7.36,
    "spk_id": "3"
  },
  "0-12": {
    "wav": "data/jeanmarie_records/0-12.flac",
    "length": 7.776,
    "spk_id": "0"
  },
  "1-16": {
    "wav": "data/thomas_records/1-16.flac",
    "length": 8.64,
    "spk_id": "1"
  },
  "3-32": {
    "wav": "data/others_records/3-32.flac",
    "length": 10.6,
    "spk_id": "3"
  },
  "0-36": {
    "wav": "data/jeanmarie_records/0-36.flac",
    "length": 6.048,
    "spk_id": "0"
  },
  "0-37": {
    "wav": "data/jeanmarie_records/0-37.flac",
    "length": 6.336,
    "spk_id": "0"
  },
  "0-28": {
    "wav": "data/jeanmarie_records/0-28.flac",
    "length": 6.912,
    "spk_id": "0"
  },
  "0-10": {
    "wav": "data/jeanmarie_records/0-10.flac",
    "length": 8.352,
    "spk_id": "0"
  },
  "0-26": {
    "wav": "data/jeanmarie_records/0-26.flac",
    "length": 6.336,
    "spk_id": "0"
  },
  "1-35": {
    "wav": "data/thomas_records/1-35.flac",
    "length": 5.76,
    "spk_id": "1"
  },
  "1-31": {
    "wav": "data/thomas_records/1-31.flac",
    "length": 7.488,
    "spk_id": "1"
  },
  "1-14": {
    "wav": "data/thomas_records/1-14.flac",
    "length": 8.64,
    "spk_id": "1"
  },
  "0-29": {
    "wav": "data/jeanmarie_records/0-29.flac",
    "length": 5.76,
    "spk_id": "0"
  },
  "1-4": {
    "wav": "data/thomas_records/1-4.flac",
    "length": 6.912,
    "spk_id": "1"
  },
  "3-10": {
    "wav": "data/others_records/3-10.flac",
    "length": 8.73,
    "spk_id": "3"
  },
  "1-2": {
    "wav": "data/thomas_records/1-2.flac",
    "length": 10.368,
    "spk_id": "1"
  },
  "1-5": {
    "wav": "data/thomas_records/1-5.flac",
    "length": 6.912,
    "spk_id": "1"
  },
  "0-1": {
    "wav": "data/jeanmarie_records/0-1.flac",
    "length": 7.776,
    "spk_id": "0"
  },
  "0-11": {
    "wav": "data/jeanmarie_records/0-11.flac",
    "length": 7.2,
    "spk_id": "0"
  },
  "0-7": {
    "wav": "data/jeanmarie_records/0-7.flac",
    "length": 10.08,
    "spk_id": "0"
  },
  "3-18": {
    "wav": "data/others_records/3-18.flac",
    "length": 4.285,
    "spk_id": "3"
  },
  "0-8": {
    "wav": "data/jeanmarie_records/0-8.flac",
    "length": 6.336,
    "spk_id": "0"
  },
  "0-9": {
    "wav": "data/jeanmarie_records/0-9.flac",
    "length": 5.184,
    "spk_id": "0"
  },
  "0-20": {
    "wav": "data/jeanmarie_records/0-20.flac",
    "length": 6.336,
    "spk_id": "0"
  },
  "3-22": {
    "wav": "data/others_records/3-22.flac",
    "length": 3.265,
    "spk_id": "3"
  },
  "0-30": {
    "wav": "data/jeanmarie_records/0-30.flac",
    "length": 5.184,
    "spk_id": "0"
  },
  "0-3": {
    "wav": "data/jeanmarie_records/0-3.flac",
    "length": 7.2,
    "spk_id": "0"
  },
  "0-34": {
    "wav": "data/jeanmarie_records/0-34.flac",
    "length": 8.64,
    "spk_id": "0"
  },
  "0-13": {
    "wav": "data/jeanmarie_records/0-13.flac",
    "length": 6.912,
    "spk_id": "0"
  },
  "1-7": {
    "wav": "data/thomas_records/1-7.flac",
    "length": 9.792,
    "spk_id": "1"
  },
  "1-17": {
    "wav": "data/thomas_records/1-17.flac",
    "length": 8.64,
    "spk_id": "1"
  },
  "1-36": {
    "wav": "data/thomas_records/1-36.flac",
    "length": 6.048,
    "spk_id": "1"
  },
  "0-41": {
    "wav": "data/jeanmarie_records/0-41.flac",
    "length": 6.336,
    "spk_id": "0"
  },
  "3-30": {
    "wav": "data/others_records/3-30.flac",
    "length": 2.685,
    "spk_id": "3"
  },
  "3-6": {
    "wav": "data/others_records/3-6.flac",
    "length": 5.165,
    "spk_id": "3"
  }
}